OBJECTID,DATE,Count
1,03/04/2020 10:00:00 AM,0
2,03/05/2020 10:00:00 AM,3
3,03/06/2020 10:00:00 AM,3
4,03/07/2020 10:00:00 AM,3
5,03/08/2020 10:00:00 AM,5
6,03/09/2020 10:00:00 AM,6
7,03/10/2020 10:00:00 AM,9
8,03/11/2020 10:00:00 AM,12
9,03/12/2020 10:00:00 AM,12
10,03/13/2020 10:00:00 AM,15
11,03/14/2020 10:00:00 AM,26
12,03/15/2020 10:00:00 AM,31
13,03/16/2020 10:00:00 AM,37
14,03/17/2020 10:00:00 AM,57
15,03/18/2020 10:00:00 AM,85
16,03/19/2020 10:00:00 AM,107
17,03/20/2020 10:00:00 AM,149
18,03/21/2020 10:00:00 AM,190
19,03/22/2020 10:00:00 AM,244
20,03/23/2020 10:00:00 AM,288
21,03/24/2020 10:00:00 AM,349
22,03/25/2020 10:00:00 AM,423
23,03/26/2020 10:00:00 AM,580
24,03/27/2020 10:00:00 AM,774
25,03/28/2020 10:00:00 AM,992
26,03/29/2020 10:00:00 AM,1239
27,03/30/2020 10:00:00 AM,1413
28,03/31/2020 10:00:00 AM,1660
29,04/01/2020 10:00:00 AM,1985
30,04/02/2020 10:00:00 AM,2331
31,04/03/2020 10:00:00 AM,2758
32,04/04/2020 10:00:00 AM,3125
33,04/05/2020 10:00:00 AM,3609
34,04/06/2020 10:00:00 AM,4045
35,04/07/2020 10:00:00 AM,4371
36,04/08/2020 10:00:00 AM,5529
37,04/09/2020 10:00:00 AM,6185
38,04/10/2020 10:00:00 AM,6968
39,04/11/2020 10:00:00 AM,7694
40,04/12/2020 10:00:00 AM,8225
41,04/13/2020 10:00:00 AM,8936
42,04/14/2020 10:00:00 AM,9472
43,04/15/2020 10:00:00 AM,10032
44,04/16/2020 10:00:00 AM,10784
45,04/17/2020 10:00:00 AM,11572
46,04/18/2020 10:00:00 AM,12308
47,04/19/2020 10:00:00 AM,12830
48,04/20/2020 10:00:00 AM,13684
49,04/21/2020 10:00:00 AM,14193
50,04/22/2020 10:00:00 AM,14775
51,04/23/2020 10:00:00 AM,15737
52,04/24/2020 10:00:00 AM,16616
53,04/25/2020 10:00:00 AM,17766
54,04/26/2020 10:00:00 AM,18581
55,04/27/2020 10:00:00 AM,19487
56,04/28/2020 10:00:00 AM,20113
57,04/29/2020 10:00:00 AM,20849
58,04/30/2020 10:00:00 AM,21742
59,05/01/2020 10:00:00 AM,23472
60,05/02/2020 10:00:00 AM,24473
61,05/03/2020 10:00:00 AM,25462
62,05/04/2020 10:00:00 AM,26408
63,05/05/2020 10:00:00 AM,27117
64,05/06/2020 10:00:00 AM,28163
65,05/07/2020 10:00:00 AM,29374
66,05/08/2020 10:00:00 AM,30485
67,05/09/2020 10:00:00 AM,31534
68,05/10/2020 10:00:00 AM,32587
69,05/11/2020 10:00:00 AM,33373
70,05/12/2020 10:00:00 AM,34061
71,05/13/2020 10:00:00 AM,34812
72,05/14/2020 10:00:00 AM,35903
73,05/15/2020 10:00:00 AM,36986
74,05/16/2020 10:00:00 AM,37968
75,05/17/2020 10:00:00 AM,38804
76,05/18/2020 10:00:00 AM,39762
77,05/19/2020 10:00:00 AM,41546
78,05/20/2020 10:00:00 AM,42323
79,05/21/2020 10:00:00 AM,43531
80,05/22/2020 10:00:00 AM,44424
81,05/23/2020 10:00:00 AM,45495
82,05/24/2020 10:00:00 AM,46313
83,05/25/2020 10:00:00 AM,47152
84,05/26/2020 10:00:00 AM,47687
85,05/27/2020 10:00:00 AM,48423
86,05/28/2020 10:00:00 AM,49709
87,05/29/2020 10:00:00 AM,50988
88,05/30/2020 10:00:00 AM,52015
89,05/31/2020 10:00:00 AM,52778
90,06/01/2020 10:00:00 AM,53327
91,06/02/2020 10:00:00 AM,54175
92,06/03/2020 10:00:00 AM,54982
93,06/04/2020 10:00:00 AM,55858
94,06/05/2020 10:00:00 AM,56770
95,06/06/2020 10:00:00 AM,57482
96,06/07/2020 10:00:00 AM,57973
97,06/08/2020 10:00:00 AM,58404
98,06/09/2020 10:00:00 AM,58904
99,06/10/2020 10:00:00 AM,59465
100,06/11/2020 10:00:00 AM,60197
101,06/12/2020 10:00:00 AM,60613
102,06/13/2020 10:00:00 AM,61305
103,06/14/2020 10:00:00 AM,61701
104,06/15/2020 10:00:00 AM,62032
105,06/16/2020 10:00:00 AM,62409
106,06/17/2020 10:00:00 AM,62969
107,06/18/2020 10:00:00 AM,63229
108,06/19/2020 10:00:00 AM,63548
109,06/20/2020 10:00:00 AM,63956
110,06/21/2020 10:00:00 AM,64306
111,06/22/2020 10:00:00 AM,64603
112,06/23/2020 10:00:00 AM,65007
113,06/24/2020 10:00:00 AM,65337
114,06/25/2020 10:00:00 AM,65777
115,06/26/2020 10:00:00 AM,66115
116,06/27/2020 10:00:00 AM,66450
117,06/28/2020 10:00:00 AM,66777
118,06/29/2020 10:00:00 AM,67254
119,06/30/2020 10:00:00 AM,67559
120,07/01/2020 10:00:00 AM,67918
121,07/02/2020 10:00:00 AM,68423
122,07/03/2020 10:00:00 AM,68961
123,07/04/2020 10:00:00 AM,69341
124,07/05/2020 10:00:00 AM,69632
125,07/06/2020 10:00:00 AM,69904
126,07/07/2020 10:00:00 AM,70396
127,07/08/2020 10:00:00 AM,70861
128,07/09/2020 10:00:00 AM,71447
129,07/10/2020 10:00:00 AM,71910
130,07/11/2020 10:00:00 AM,72467
131,07/12/2020 10:00:00 AM,73109
132,07/13/2020 10:00:00 AM,73527
133,07/14/2020 10:00:00 AM,74260
134,07/15/2020 10:00:00 AM,75016
135,07/16/2020 10:00:00 AM,75664
136,07/17/2020 10:00:00 AM,76371
137,07/18/2020 10:00:00 AM,77206
138,07/19/2020 10:00:00 AM,78131
139,07/20/2020 10:00:00 AM,78685
140,07/21/2020 10:00:00 AM,79545
141,07/22/2020 10:00:00 AM,80172
142,07/23/2020 10:00:00 AM,80836
143,07/24/2020 10:00:00 AM,81766
144,07/25/2020 10:00:00 AM,83054
145,07/26/2020 10:00:00 AM,83748
146,07/27/2020 10:00:00 AM,84876
147,07/28/2020 10:00:00 AM,85524
148,07/29/2020 10:00:00 AM,86285
149,07/30/2020 10:00:00 AM,87177
150,07/31/2020 10:00:00 AM,88346
151,08/01/2020 10:00:00 AM,89365
152,08/02/2020 10:00:00 AM,90274
153,08/03/2020 10:00:00 AM,91144
154,08/04/2020 10:00:00 AM,91854
155,08/05/2020 10:00:00 AM,92426
156,08/06/2020 10:00:00 AM,93005
157,08/07/2020 10:00:00 AM,93806
158,08/08/2020 10:00:00 AM,94581
159,08/09/2020 10:00:00 AM,95503
160,08/10/2020 10:00:00 AM,96258
161,08/11/2020 10:00:00 AM,96843
162,08/12/2020 10:00:00 AM,97384
163,08/13/2020 10:00:00 AM,98160
164,08/14/2020 10:00:00 AM,98875
165,08/15/2020 10:00:00 AM,99693
166,08/16/2020 10:00:00 AM,100212
167,08/17/2020 10:00:00 AM,100715
168,08/18/2020 10:00:00 AM,101235
169,08/19/2020 10:00:00 AM,101649
170,08/20/2020 10:00:00 AM,102229
171,08/21/2020 10:00:00 AM,102899
172,08/22/2020 10:00:00 AM,103523
173,08/23/2020 10:00:00 AM,104102
174,08/24/2020 10:00:00 AM,104669
175,08/25/2020 10:00:00 AM,105046
176,08/26/2020 10:00:00 AM,105486
177,08/27/2020 10:00:00 AM,106063
178,08/28/2020 10:00:00 AM,106664
179,08/29/2020 10:00:00 AM,107294
180,08/30/2020 10:00:00 AM,107791
181,08/31/2020 10:00:00 AM,108249
182,09/01/2020 10:00:00 AM,108863
183,09/02/2020 10:00:00 AM,109319
184,09/03/2020 10:00:00 AM,110012
185,09/04/2020 10:00:00 AM,110831
186,09/05/2020 10:00:00 AM,111607
187,09/06/2020 10:00:00 AM,112119
188,09/07/2020 10:00:00 AM,112883
189,09/08/2020 10:00:00 AM,113239
190,09/09/2020 10:00:00 AM,113575
191,09/10/2020 10:00:00 AM,114078
192,09/11/2020 10:00:00 AM,114724
193,09/12/2020 10:00:00 AM,115533
194,09/13/2020 10:00:00 AM,116110
195,09/14/2020 10:00:00 AM,116646
196,09/15/2020 10:00:00 AM,117245
197,09/16/2020 10:00:00 AM,117888
198,09/17/2020 10:00:00 AM,118519
199,09/18/2020 10:00:00 AM,119062
200,09/19/2020 10:00:00 AM,119744
201,09/20/2020 10:00:00 AM,120156
202,09/21/2020 10:00:00 AM,120568
203,09/22/2020 10:00:00 AM,120912
204,09/23/2020 10:00:00 AM,121297
205,09/24/2020 10:00:00 AM,121800
206,09/25/2020 10:00:00 AM,122359
207,09/26/2020 10:00:00 AM,122972
208,09/27/2020 10:00:00 AM,123403
209,09/28/2020 10:00:00 AM,123880
210,09/29/2020 10:00:00 AM,124311
211,09/30/2020 10:00:00 AM,124725
212,10/01/2020 10:00:00 AM,125510
213,10/02/2020 10:00:00 AM,126222
214,10/03/2020 10:00:00 AM,126819
215,10/04/2020 10:00:00 AM,127290
216,10/05/2020 10:00:00 AM,127791
217,10/06/2020 10:00:00 AM,128204
218,10/07/2020 10:00:00 AM,128664
219,10/08/2020 10:00:00 AM,129425
220,10/09/2020 10:00:00 AM,130159
221,10/10/2020 10:00:00 AM,130795
222,10/11/2020 10:00:00 AM,131357
223,10/12/2020 10:00:00 AM,131861
224,10/13/2020 10:00:00 AM,132343
225,10/14/2020 10:00:00 AM,132918
226,10/15/2020 10:00:00 AM,133548
227,10/16/2020 10:00:00 AM,134329
228,10/17/2020 10:00:00 AM,135127
229,10/18/2020 10:00:00 AM,135657
230,10/19/2020 10:00:00 AM,136154
231,10/20/2020 10:00:00 AM,136744
232,10/21/2020 10:00:00 AM,137236
233,10/22/2020 10:00:00 AM,137979
234,10/23/2020 10:00:00 AM,138691
235,10/24/2020 10:00:00 AM,139487
236,10/25/2020 10:00:00 AM,140279
237,10/26/2020 10:00:00 AM,140844
238,10/27/2020 10:00:00 AM,141741
239,10/28/2020 10:00:00 AM,142425
240,10/29/2020 10:00:00 AM,143387
241,10/30/2020 10:00:00 AM,144314
242,10/31/2020 10:00:00 AM,145281
243,11/01/2020 10:00:00 AM,146145
244,11/02/2020 10:00:00 AM,146995
245,11/03/2020 10:00:00 AM,147766
246,11/04/2020 10:00:00 AM,148766
247,11/05/2020 10:00:00 AM,149964
248,11/06/2020 10:00:00 AM,151505
249,11/07/2020 10:00:00 AM,152915
250,11/08/2020 10:00:00 AM,153996
251,11/09/2020 10:00:00 AM,155371
252,11/10/2020 10:00:00 AM,156709
253,11/11/2020 10:00:00 AM,158423
254,11/12/2020 10:00:00 AM,159900
255,11/13/2020 10:00:00 AM,161769
256,11/14/2020 10:00:00 AM,164090
257,11/15/2020 10:00:00 AM,165930
258,11/16/2020 10:00:00 AM,167656
259,11/17/2020 10:00:00 AM,169805
260,11/18/2020 10:00:00 AM,171823
261,11/19/2020 10:00:00 AM,174733
262,11/20/2020 10:00:00 AM,177086
263,11/21/2020 10:00:00 AM,179971
264,11/22/2020 10:00:00 AM,182139
265,11/23/2020 10:00:00 AM,183797
266,11/24/2020 10:00:00 AM,185464
267,11/25/2020 10:00:00 AM,188161
268,11/26/2020 10:00:00 AM,190480
269,11/27/2020 10:00:00 AM,192858
270,11/28/2020 10:00:00 AM,194448
271,11/29/2020 10:00:00 AM,196447
272,11/30/2020 10:00:00 AM,198370
273,12/01/2020 10:00:00 AM,201135
274,12/02/2020 10:00:00 AM,203355
275,12/03/2020 10:00:00 AM,205399
276,12/04/2020 10:00:00 AM,209191
277,12/05/2020 10:00:00 AM,212384
278,12/06/2020 10:00:00 AM,215027
279,12/07/2020 10:00:00 AM,217329
280,12/08/2020 10:00:00 AM,219961
281,12/09/2020 10:00:00 AM,222653
282,12/10/2020 10:00:00 AM,225855
283,12/11/2020 10:00:00 AM,228471
284,12/12/2020 10:00:00 AM,232009
285,12/13/2020 10:00:00 AM,234647
286,12/14/2020 10:00:00 AM,236961
287,12/15/2020 10:00:00 AM,239362
288,12/16/2020 10:00:00 AM,241767
289,12/17/2020 10:00:00 AM,243984
290,12/18/2020 10:00:00 AM,246553
291,12/19/2020 10:00:00 AM,248754
292,12/20/2020 10:00:00 AM,250808
293,12/21/2020 10:00:00 AM,253073
294,12/22/2020 10:00:00 AM,255397
295,12/23/2020 10:00:00 AM,257862
296,12/24/2020 10:00:00 AM,260728
297,12/25/2020 10:00:00 AM,263160
298,12/26/2020 10:00:00 AM,265440
299,12/27/2020 10:00:00 AM,267198
300,12/28/2020 10:00:00 AM,269183
301,12/29/2020 10:00:00 AM,271061
302,12/30/2020 10:00:00 AM,273689
303,12/31/2020 10:00:00 AM,276662
304,01/01/2021 10:00:00 AM,280219
305,01/02/2021 10:00:00 AM,283171
306,01/03/2021 10:00:00 AM,285319
307,01/04/2021 10:00:00 AM,287802
308,01/05/2021 10:00:00 AM,289758
309,01/06/2021 10:00:00 AM,292904
310,01/07/2021 10:00:00 AM,295874
311,01/08/2021 10:00:00 AM,299606
312,01/09/2021 10:00:00 AM,303364
313,01/10/2021 10:00:00 AM,306674
314,01/11/2021 10:00:00 AM,309686
315,01/12/2021 10:00:00 AM,312351
316,01/13/2021 10:00:00 AM,314867
317,01/14/2021 10:00:00 AM,317815
318,01/15/2021 10:00:00 AM,320739
319,01/16/2021 10:00:00 AM,324031
320,01/17/2021 10:00:00 AM,326445
321,01/18/2021 10:00:00 AM,328214
322,01/19/2021 10:00:00 AM,330186
323,01/20/2021 10:00:00 AM,332353
324,01/21/2021 10:00:00 AM,334519
325,01/22/2021 10:00:00 AM,336915
326,01/23/2021 10:00:00 AM,339307
327,01/24/2021 10:00:00 AM,341452
328,01/25/2021 10:00:00 AM,343138
329,01/26/2021 10:00:00 AM,344620
330,01/27/2021 10:00:00 AM,346559
331,01/28/2021 10:00:00 AM,348749
332,01/29/2021 10:00:00 AM,350629
333,01/30/2021 10:00:00 AM,352726
334,01/31/2021 10:00:00 AM,354473
335,02/01/2021 10:00:00 AM,355636
336,02/02/2021 10:00:00 AM,356541
337,02/03/2021 10:00:00 AM,357483
338,02/04/2021 10:00:00 AM,359037
339,02/05/2021 10:00:00 AM,360584
340,02/06/2021 10:00:00 AM,362084
341,02/07/2021 10:00:00 AM,363650
342,02/08/2021 10:00:00 AM,364553
343,02/09/2021 10:00:00 AM,365529
344,02/10/2021 10:00:00 AM,366666
345,02/11/2021 10:00:00 AM,367865
346,02/12/2021 10:00:00 AM,368977
347,02/13/2021 10:00:00 AM,370136
348,02/14/2021 10:00:00 AM,370983
349,02/15/2021 10:00:00 AM,371705
350,02/16/2021 10:00:00 AM,372221
351,02/17/2021 10:00:00 AM,372980
352,02/18/2021 10:00:00 AM,373966
353,02/19/2021 10:00:00 AM,374974
354,02/20/2021 10:00:00 AM,375737
355,02/21/2021 10:00:00 AM,376355
356,02/22/2021 10:00:00 AM,376966
357,02/23/2021 10:00:00 AM,377628
358,02/24/2021 10:00:00 AM,378490
359,02/25/2021 10:00:00 AM,379466
360,02/26/2021 10:00:00 AM,380436
361,02/27/2021 10:00:00 AM,381272
362,02/28/2021 10:00:00 AM,382099
363,03/01/2021 10:00:00 AM,382702
364,03/02/2021 10:00:00 AM,383170
365,03/03/2021 10:00:00 AM,383956
366,03/04/2021 10:00:00 AM,384765
367,03/05/2021 10:00:00 AM,385678
368,03/06/2021 10:00:00 AM,386610
369,03/07/2021 10:00:00 AM,387319
370,03/08/2021 10:00:00 AM,388035
371,03/09/2021 10:00:00 AM,388666
372,03/10/2021 10:00:00 AM,389566
373,03/11/2021 10:00:00 AM,390490
374,03/12/2021 10:00:00 AM,391480
375,03/13/2021 10:00:00 AM,392581
376,03/14/2021 10:00:00 AM,393441
377,03/15/2021 10:00:00 AM,394058
378,03/16/2021 10:00:00 AM,394716
379,03/17/2021 10:00:00 AM,395633
380,03/18/2021 10:00:00 AM,396746
381,03/19/2021 10:00:00 AM,397898
382,03/20/2021 10:00:00 AM,399016
383,03/21/2021 10:00:00 AM,400023
384,03/22/2021 10:00:00 AM,400705
385,03/23/2021 10:00:00 AM,401427
386,03/24/2021 10:00:00 AM,402600
387,03/25/2021 10:00:00 AM,403982
388,03/26/2021 10:00:00 AM,405343
389,03/27/2021 10:00:00 AM,406709
390,03/28/2021 10:00:00 AM,408044
391,03/29/2021 10:00:00 AM,409075
392,03/30/2021 10:00:00 AM,409978
393,03/31/2021 10:00:00 AM,411344
394,04/01/2021 10:00:00 AM,412928
395,04/02/2021 10:00:00 AM,414385
396,04/03/2021 10:00:00 AM,415660
397,04/04/2021 10:00:00 AM,417329
398,04/05/2021 10:00:00 AM,418188
399,04/06/2021 10:00:00 AM,419055
400,04/07/2021 10:00:00 AM,420526
401,04/08/2021 10:00:00 AM,421823
402,04/09/2021 10:00:00 AM,423663
403,04/10/2021 10:00:00 AM,425247
404,04/11/2021 10:00:00 AM,426730
405,04/12/2021 10:00:00 AM,427715
406,04/13/2021 10:00:00 AM,428799
407,04/14/2021 10:00:00 AM,430351
408,04/15/2021 10:00:00 AM,431795
409,04/16/2021 10:00:00 AM,433359
410,04/17/2021 10:00:00 AM,434859
411,04/18/2021 10:00:00 AM,436028
412,04/19/2021 10:00:00 AM,436659
413,04/20/2021 10:00:00 AM,437584
414,04/21/2021 10:00:00 AM,438789
415,04/22/2021 10:00:00 AM,439992
416,04/23/2021 10:00:00 AM,441155
417,04/24/2021 10:00:00 AM,442351
418,04/25/2021 10:00:00 AM,443257
419,04/26/2021 10:00:00 AM,443814
420,04/27/2021 10:00:00 AM,444491
421,04/28/2021 10:00:00 AM,445493
422,04/29/2021 10:00:00 AM,446459
423,04/30/2021 10:00:00 AM,447401
424,05/01/2021 10:00:00 AM,448340
425,05/02/2021 10:00:00 AM,448989
426,05/03/2021 10:00:00 AM,449509
427,05/04/2021 10:00:00 AM,450010
428,05/05/2021 10:00:00 AM,450689
429,05/06/2021 10:00:00 AM,451267
430,05/07/2021 10:00:00 AM,452035
431,05/08/2021 10:00:00 AM,452691
432,05/09/2021 10:00:00 AM,453125
433,05/10/2021 10:00:00 AM,453401
434,05/11/2021 10:00:00 AM,453800
435,05/12/2021 10:00:00 AM,454271
436,05/13/2021 10:00:00 AM,454745
437,05/14/2021 10:00:00 AM,455257
438,05/15/2021 10:00:00 AM,455635
439,05/16/2021 10:00:00 AM,456004
440,05/17/2021 10:00:00 AM,456216
441,05/18/2021 10:00:00 AM,456428
442,05/19/2021 10:00:00 AM,456765
443,05/20/2021 10:00:00 AM,457084
444,05/21/2021 10:00:00 AM,457527
445,05/22/2021 10:00:00 AM,458048
446,05/23/2021 10:00:00 AM,458292
447,05/24/2021 10:00:00 AM,458520
448,05/25/2021 10:00:00 AM,458680
449,05/26/2021 10:00:00 AM,458878
450,05/27/2021 10:00:00 AM,459095
451,05/28/2021 10:00:00 AM,459343
452,05/29/2021 10:00:00 AM,459528
453,05/30/2021 10:00:00 AM,459777
454,05/31/2021 10:00:00 AM,459894
455,06/01/2021 10:00:00 AM,459995
456,06/02/2021 10:00:00 AM,460060
457,06/03/2021 10:00:00 AM,460194
458,06/04/2021 10:00:00 AM,460339
459,06/05/2021 10:00:00 AM,460471
460,06/06/2021 10:00:00 AM,460575
461,06/07/2021 10:00:00 AM,460659
462,06/08/2021 10:00:00 AM,460737
463,06/09/2021 10:00:00 AM,460863
464,06/10/2021 10:00:00 AM,460984
465,06/11/2021 10:00:00 AM,461097
466,06/12/2021 10:00:00 AM,461183
467,06/13/2021 10:00:00 AM,461265
468,06/14/2021 10:00:00 AM,461325
469,06/15/2021 10:00:00 AM,461392
470,06/16/2021 10:00:00 AM,461470
471,06/17/2021 10:00:00 AM,461549
472,06/18/2021 10:00:00 AM,461635
473,06/19/2021 10:00:00 AM,461697
474,06/20/2021 10:00:00 AM,461739
475,06/21/2021 10:00:00 AM,461779
476,06/22/2021 10:00:00 AM,461828
477,06/23/2021 10:00:00 AM,461887
478,06/24/2021 10:00:00 AM,461953
479,06/25/2021 10:00:00 AM,462017
480,06/26/2021 10:00:00 AM,462078
481,06/27/2021 10:00:00 AM,462144
482,06/28/2021 10:00:00 AM,462181
483,06/29/2021 10:00:00 AM,462217
484,06/30/2021 10:00:00 AM,462279
485,07/01/2021 10:00:00 AM,462354
486,07/02/2021 10:00:00 AM,462439
487,07/03/2021 10:00:00 AM,462535
488,07/04/2021 10:00:00 AM,462596
489,07/05/2021 10:00:00 AM,462634
490,07/06/2021 10:00:00 AM,462681
491,07/07/2021 10:00:00 AM,462736
492,07/08/2021 10:00:00 AM,462835
493,07/09/2021 10:00:00 AM,462980
494,07/10/2021 10:00:00 AM,463107
495,07/11/2021 10:00:00 AM,463186
496,07/12/2021 10:00:00 AM,463265
497,07/13/2021 10:00:00 AM,463383
498,07/14/2021 10:00:00 AM,463487
499,07/15/2021 10:00:00 AM,463665
500,07/16/2021 10:00:00 AM,463848
501,07/17/2021 10:00:00 AM,464031
502,07/18/2021 10:00:00 AM,464197
503,07/19/2021 10:00:00 AM,464336
504,07/20/2021 10:00:00 AM,464491
505,07/21/2021 10:00:00 AM,464735
506,07/22/2021 10:00:00 AM,465038
507,07/23/2021 10:00:00 AM,465326
508,07/24/2021 10:00:00 AM,465643
509,07/25/2021 10:00:00 AM,465949
510,07/26/2021 10:00:00 AM,466205
511,07/27/2021 10:00:00 AM,466514
512,07/28/2021 10:00:00 AM,466930
513,07/29/2021 10:00:00 AM,467435
514,07/30/2021 10:00:00 AM,467961
515,07/31/2021 10:00:00 AM,468548
516,08/01/2021 10:00:00 AM,469095
517,08/02/2021 10:00:00 AM,469542
518,08/03/2021 10:00:00 AM,469910
519,08/04/2021 10:00:00 AM,470605
520,08/05/2021 10:00:00 AM,471334
521,08/06/2021 10:00:00 AM,472224
522,08/07/2021 10:00:00 AM,473116
523,08/08/2021 10:00:00 AM,473969
524,08/09/2021 10:00:00 AM,474555
525,08/10/2021 10:00:00 AM,475184
526,08/11/2021 10:00:00 AM,476070
527,08/12/2021 10:00:00 AM,477117
528,08/13/2021 10:00:00 AM,478067
529,08/14/2021 10:00:00 AM,479083
530,08/15/2021 10:00:00 AM,479952
531,08/16/2021 10:00:00 AM,480718
532,08/17/2021 10:00:00 AM,481569
533,08/18/2021 10:00:00 AM,482581
534,08/19/2021 10:00:00 AM,483641
535,08/20/2021 10:00:00 AM,484847
536,08/21/2021 10:00:00 AM,485978
537,08/22/2021 10:00:00 AM,486968
538,08/23/2021 10:00:00 AM,487893
539,08/24/2021 10:00:00 AM,488740
540,08/25/2021 10:00:00 AM,489930
541,08/26/2021 10:00:00 AM,491174
542,08/27/2021 10:00:00 AM,492547
543,08/28/2021 10:00:00 AM,493915
544,08/29/2021 10:00:00 AM,494982
545,08/30/2021 10:00:00 AM,495924
546,08/31/2021 10:00:00 AM,497002
547,09/01/2021 10:00:00 AM,498376
548,09/02/2021 10:00:00 AM,499648
549,09/03/2021 10:00:00 AM,501035
550,09/04/2021 10:00:00 AM,502229
551,09/05/2021 10:00:00 AM,503034
552,09/06/2021 10:00:00 AM,504061
553,09/07/2021 10:00:00 AM,504856
554,09/08/2021 10:00:00 AM,505557
555,09/09/2021 10:00:00 AM,506464
556,09/10/2021 10:00:00 AM,508017
557,09/11/2021 10:00:00 AM,509393
558,09/12/2021 10:00:00 AM,510543
559,09/13/2021 10:00:00 AM,511646
560,09/14/2021 10:00:00 AM,512740
561,09/15/2021 10:00:00 AM,513929
562,09/16/2021 10:00:00 AM,515259
563,09/17/2021 10:00:00 AM,516784
564,09/18/2021 10:00:00 AM,518061
565,09/19/2021 10:00:00 AM,519097
566,09/20/2021 10:00:00 AM,520236
567,09/21/2021 10:00:00 AM,521210
568,09/22/2021 10:00:00 AM,522355
569,09/23/2021 10:00:00 AM,523760
570,09/24/2021 10:00:00 AM,525123
571,09/25/2021 10:00:00 AM,526690
572,09/26/2021 10:00:00 AM,527804
573,09/27/2021 10:00:00 AM,528764
574,09/28/2021 10:00:00 AM,529736
575,09/29/2021 10:00:00 AM,530861
576,09/30/2021 10:00:00 AM,532340
577,10/01/2021 10:00:00 AM,533870
578,10/02/2021 10:00:00 AM,535157
579,10/03/2021 10:00:00 AM,536249
580,10/04/2021 10:00:00 AM,537327
581,10/05/2021 10:00:00 AM,537976
582,10/06/2021 10:00:00 AM,539053
583,10/07/2021 10:00:00 AM,540451
584,10/08/2021 10:00:00 AM,541627
585,10/09/2021 10:00:00 AM,542886
586,10/10/2021 10:00:00 AM,544219
587,10/11/2021 10:00:00 AM,545028
588,10/12/2021 10:00:00 AM,545439
589,10/13/2021 10:00:00 AM,546552
590,10/14/2021 10:00:00 AM,547675
591,10/15/2021 10:00:00 AM,548743
592,10/16/2021 10:00:00 AM,549679
593,10/17/2021 10:00:00 AM,550550
594,10/18/2021 10:00:00 AM,551264
595,10/19/2021 10:00:00 AM,551807
596,10/20/2021 10:00:00 AM,552524
597,10/21/2021 10:00:00 AM,553593
598,10/22/2021 10:00:00 AM,554456
599,10/23/2021 10:00:00 AM,555366
600,10/24/2021 10:00:00 AM,556083
601,10/25/2021 10:00:00 AM,556595
602,10/26/2021 10:00:00 AM,557192
603,10/27/2021 10:00:00 AM,557923
604,10/28/2021 10:00:00 AM,558852
605,10/29/2021 10:00:00 AM,559763
606,10/30/2021 10:00:00 AM,560634
607,10/31/2021 10:00:00 AM,561270
608,11/01/2021 10:00:00 AM,561718
609,11/02/2021 10:00:00 AM,562200
610,11/03/2021 10:00:00 AM,562896
611,11/04/2021 10:00:00 AM,563696
