OBJECTID,DATE,African_American,White,Hispanic,Asian,Other,Not_Available
1,04/06/2020 10:00:00 AM,1521,1207,,74,321,922
2,04/07/2020 10:00:00 AM,,,,,,
3,04/08/2020 10:00:00 AM,2064,1540,,122,449,1354
4,04/09/2020 10:00:00 AM,2304,1694,,136,544,1507
5,04/10/2020 10:00:00 AM,2599,1883,,153,643,1690
6,04/11/2020 10:00:00 AM,2988,2145,,177,806,1578
7,04/12/2020 10:00:00 AM,3202,2305,,190,861,1667
8,04/13/2020 10:00:00 AM,3512,2547,0,211,961,1705
9,04/14/2020 10:00:00 AM,,,,,,
10,04/15/2020 10:00:00 AM,3724,2425,1075,230,357,2221
11,04/16/2020 10:00:00 AM,3978,2535,1180,239,376,2476
12,04/17/2020 10:00:00 AM,4301,2681,1357,252,429,2552
13,04/18/2020 10:00:00 AM,4557,2869,1489,266,458,2669
14,04/19/2020 10:00:00 AM,4855,3037,1639,276,505,2518
15,04/20/2020 10:00:00 AM,5064,3156,1744,284,519,2917
16,04/21/2020 10:00:00 AM,5322,3327,1916,296,552,2780
17,04/22/2020 10:00:00 AM,5540,3476,2033,304,571,2851
18,04/23/2020 10:00:00 AM,5800,3662,2130,322,588,3235
19,04/24/2020 10:00:00 AM,6046,3830,2373,339,616,3412
20,04/25/2020 10:00:00 AM,6314,4020,2574,344,657,3857
21,04/26/2020 10:00:00 AM,6742,4276,2841,363,707,3652
22,04/27/2020 10:00:00 AM,7085,4498,3077,384,752,3691
23,04/28/2020 10:00:00 AM,7432,4708,3309,424,721,3519
24,04/29/2020 10:00:00 AM,7615,4808,3473,434,747,3772
25,04/30/2020 10:00:00 AM,7821,4935,3651,459,793,4083
26,05/01/2020 10:00:00 AM,8093,5147,3884,475,840,5033
27,05/02/2020 10:00:00 AM,8470,5385,4258,502,876,4982
28,05/03/2020 10:00:00 AM,8871,5698,4625,530,989,4749
29,05/04/2020 10:00:00 AM,9147,5873,4892,547,1040,4909
30,05/05/2020 10:00:00 AM,9424,6129,5144,565,937,4918
31,05/06/2020 10:00:00 AM,9648,6280,5394,580,986,5275
32,05/07/2020 10:00:00 AM,9892,6468,5726,603,1032,5653
33,05/08/2020 10:00:00 AM,10165,6695,6067,631,1107,5820
34,05/09/2020 10:00:00 AM,10337,6796,6337,647,1151,6266
35,05/10/2020 10:00:00 AM,10623,7018,6686,664,1187,6409
36,05/11/2020 10:00:00 AM,10927,7260,7057,691,1387,6051
37,05/12/2020 10:00:00 AM,11110,7365,7274,700,1433,6179
38,05/13/2020 10:00:00 AM,11140,7367,7483,689,1703,6430
39,05/14/2020 10:00:00 AM,11328,7479,7864,703,1708,6821
40,05/15/2020 10:00:00 AM,11572,7701,8229,723,1763,6998
41,05/16/2020 10:00:00 AM,11795,7865,8615,738,1814,7141
42,05/17/2020 10:00:00 AM,12052,8058,8907,752,1852,7183
43,05/18/2020 10:00:00 AM,12220,8180,9196,770,1888,7508
44,05/19/2020 10:00:00 AM,12454,8365,9525,787,2007,8408
45,05/20/2020 10:00:00 AM,12919,8566,10153,823,2106,7756
46,05/21/2020 10:00:00 AM,13086,8697,10374,836,2143,8395
47,05/22/2020 10:00:00 AM,13320,8897,10726,855,2187,8439
48,05/23/2020 10:00:00 AM,13527,9075,11035,873,2219,8766
49,05/24/2020 10:00:00 AM,13762,9232,11383,889,2272,8775
50,05/25/2020 10:00:00 AM,13922,9359,11628,895,2295,9053
51,05/26/2020 10:00:00 AM,14116,9484,11819,907,2317,9044
52,05/27/2020 10:00:00 AM,14217,9575,11956,917,2341,9417
53,05/28/2020 10:00:00 AM,14473,9762,12422,938,2458,9656
54,05/29/2020 10:00:00 AM,14613,9869,12610,948,2478,10470
55,05/30/2020 10:00:00 AM,14911,10054,12978,977,2530,10565
56,05/31/2020 10:00:00 AM,15188,10299,13377,997,2654,10263
57,06/01/2020 10:00:00 AM,15527,10529,13753,1016,2699,9803
58,06/02/2020 10:00:00 AM,15631,10603,13901,1024,2725,10291
59,06/03/2020 10:00:00 AM,15856,10757,14155,1048,2765,10401
60,06/04/2020 10:00:00 AM,16035,10898,14338,1057,2783,10747
61,06/05/2020 10:00:00 AM,16208,11031,14573,1072,2825,11061
62,06/06/2020 10:00:00 AM,16427,11206,14839,1082,2846,11082
63,06/07/2020 10:00:00 AM,16593,11319,15040,1093,2882,11046
64,06/08/2020 10:00:00 AM,16857,11468,15394,1106,2922,10657
65,06/09/2020 10:00:00 AM,16966,11547,15518,1114,2946,10813
66,06/10/2020 10:00:00 AM,17214,11718,16006,1140,3085,10302
67,06/11/2020 10:00:00 AM,17345,11770,16293,1176,3094,10519
68,06/12/2020 10:00:00 AM,17449,11848,16404,1182,3105,10625
69,06/13/2020 10:00:00 AM,17595,11956,16609,1194,3126,10825
70,06/14/2020 10:00:00 AM,17692,12022,16738,1200,3140,10909
71,06/15/2020 10:00:00 AM,17767,12069,16834,1205,3149,11008
72,06/16/2020 10:00:00 AM,17867,12139,16921,1214,3155,11113
73,06/17/2020 10:00:00 AM,18017,12244,17020,1225,3172,11291
74,06/18/2020 10:00:00 AM,18295,12414,17252,1251,3203,10814
75,06/19/2020 10:00:00 AM,18377,12501,17282,1255,3203,10930
76,06/20/2020 10:00:00 AM,18492,12574,17418,1263,3227,10982
77,06/21/2020 10:00:00 AM,18582,12629,17514,1268,3242,11071
78,06/22/2020 10:00:00 AM,18657,12693,17580,1271,3251,11151
79,06/23/2020 10:00:00 AM,18753,12747,17670,1275,3259,11303
80,06/24/2020 10:00:00 AM,18831,12797,17738,1278,3268,11425
81,06/25/2020 10:00:00 AM,18918,12887,17833,1284,3277,11578
82,06/26/2020 10:00:00 AM,18990,12952,17918,1293,3292,11670
83,06/27/2020 10:00:00 AM,19054,13033,17991,1294,3300,11778
84,06/28/2020 10:00:00 AM,19122,13091,18058,1300,3307,11899
85,06/29/2020 10:00:00 AM,19191,13159,18127,1301,3317,12159
86,06/30/2020 10:00:00 AM,19349,13288,18229,1310,3331,12052
87,07/01/2020 10:00:00 AM,19463,13377,18283,1314,3344,12137
88,07/02/2020 10:00:00 AM,19474,13380,18289,1314,3343,12118
89,07/03/2020 10:00:00 AM,19783,13617,18460,1327,3379,12395
90,07/04/2020 10:00:00 AM,19874,13709,18524,1333,3392,12509
91,07/05/2020 10:00:00 AM,19953,13788,18568,1335,3403,12585
92,07/06/2020 10:00:00 AM,20043,13850,18609,1337,3407,12658
93,07/07/2020 10:00:00 AM,20157,13954,18690,1346,3427,12822
94,07/08/2020 10:00:00 AM,20288,14062,18747,1353,3446,12965
95,07/09/2020 10:00:00 AM,20515,14286,19172,1399,3419,12656
96,07/10/2020 10:00:00 AM,20695,14441,19261,1409,3448,12656
97,07/11/2020 10:00:00 AM,20910,14614,19357,1416,3469,12701
98,07/12/2020 10:00:00 AM,21160,14797,19452,1426,3498,12776
99,07/13/2020 10:00:00 AM,21250,14901,19491,1427,3518,12940
100,07/14/2020 10:00:00 AM,21525,15161,19701,1446,3551,12876
101,07/15/2020 10:00:00 AM,21784,15394,19822,1458,3583,12975
102,07/16/2020 10:00:00 AM,22000,15599,19937,1475,3608,13045
103,07/17/2020 10:00:00 AM,22225,15846,20063,1482,3634,13121
104,07/18/2020 10:00:00 AM,22528,16113,20191,1490,3667,13217
105,07/19/2020 10:00:00 AM,22887,16383,20321,1510,3707,13323
106,07/20/2020 10:00:00 AM,23092,16548,20390,1520,3732,13403
107,07/21/2020 10:00:00 AM,23414,16799,20485,1529,3761,13557
108,07/22/2020 10:00:00 AM,23503,16887,20505,1532,3773,13530
109,07/23/2020 10:00:00 AM,23905,17213,20670,1551,3805,13692
110,07/24/2020 10:00:00 AM,24310,17486,20795,1566,3823,13786
111,07/25/2020 10:00:00 AM,24844,17904,20933,1591,3863,13919
112,07/26/2020 10:00:00 AM,25116,18088,21032,1597,3885,14030
113,07/27/2020 10:00:00 AM,25440,18284,21115,1606,3917,14514
114,07/28/2020 10:00:00 AM,25880,18540,21228,1618,3953,14305
115,07/29/2020 10:00:00 AM,26189,18746,21311,1625,3984,14430
116,07/30/2020 10:00:00 AM,26601,19023,21422,1634,4009,14488
117,07/31/2020 10:00:00 AM,27055,19364,21593,1657,4041,14636
118,08/01/2020 10:00:00 AM,27451,19640,21693,1676,4076,14829
119,08/02/2020 10:00:00 AM,27823,19904,21797,1685,4118,14947
120,08/03/2020 10:00:00 AM,28163,20140,21896,1698,4148,15099
121,08/04/2020 10:00:00 AM,28253,19945,23151,1662,4050,14793
122,08/05/2020 10:00:00 AM,28480,20106,23217,1674,4070,14879
123,08/06/2020 10:00:00 AM,28784,20294,23367,1687,4098,14775
124,08/07/2020 10:00:00 AM,29141,20498,23496,1701,4140,14830
125,08/08/2020 10:00:00 AM,29463,20667,23636,1713,4155,14947
126,08/09/2020 10:00:00 AM,29841,20895,23781,1726,4191,15069
127,08/10/2020 10:00:00 AM,29964,20967,23812,1729,4198,15588
128,08/11/2020 10:00:00 AM,30377,21215,23983,1752,4249,15267
129,08/12/2020 10:00:00 AM,30803,21428,24200,1771,4290,14892
130,08/13/2020 10:00:00 AM,31067,21624,24333,1791,4317,15028
131,08/14/2020 10:00:00 AM,31356,21800,24465,1805,4338,15111
132,08/15/2020 10:00:00 AM,31693,22014,24593,1823,4368,15202
133,08/16/2020 10:00:00 AM,31912,22168,24672,1832,4381,15247
134,08/17/2020 10:00:00 AM,32109,22322,24733,1849,4396,15306
135,08/18/2020 10:00:00 AM,32296,22450,24809,1862,4413,15405
136,08/19/2020 10:00:00 AM,32440,22581,24859,1863,4433,15473
137,08/20/2020 10:00:00 AM,32651,22735,24952,1869,4468,15554
138,08/21/2020 10:00:00 AM,32910,22944,25069,1877,4501,15598
139,08/22/2020 10:00:00 AM,33135,23139,25184,1895,4530,15640
140,08/23/2020 10:00:00 AM,33320,23333,25276,1912,4550,15711
141,08/24/2020 10:00:00 AM,33503,23500,25343,1928,4590,15805
142,08/25/2020 10:00:00 AM,33622,23574,25419,1936,4610,15885
143,08/26/2020 10:00:00 AM,33753,23731,25497,1946,4627,15932
144,08/27/2020 10:00:00 AM,33923,23909,25593,1963,4650,16025
145,08/28/2020 10:00:00 AM,34105,24102,25669,1981,4678,16129
146,08/29/2020 10:00:00 AM,34300,24338,25764,1999,4690,16203
147,08/30/2020 10:00:00 AM,34463,24510,25848,2015,4721,16234
148,08/31/2020 10:00:00 AM,34611,24667,25918,2022,4738,16293
149,09/01/2020 10:00:00 AM,35080,25309,24872,2061,5042,16499
150,09/02/2020 10:00:00 AM,35232,25541,24952,2082,5069,16443
151,09/03/2020 10:00:00 AM,35440,25821,25021,2104,5097,16529
152,09/04/2020 10:00:00 AM,35652,26162,25106,2121,5134,16656
153,09/05/2020 10:00:00 AM,35922,26475,25186,2132,5161,16731
154,09/06/2020 10:00:00 AM,36059,26702,25235,2147,5184,16792
155,09/07/2020 10:00:00 AM,36304,26961,25307,2163,5219,16929
156,09/08/2020 10:00:00 AM,36403,27104,25356,2167,5229,16980
157,09/09/2020 10:00:00 AM,36495,27231,25397,2176,5249,17027
158,09/10/2020 10:00:00 AM,36636,27439,25458,2180,5274,17091
159,09/11/2020 10:00:00 AM,36811,27655,25534,2192,5323,17209
160,09/12/2020 10:00:00 AM,36979,28016,25644,2210,5357,17327
161,09/13/2020 10:00:00 AM,37138,28240,25706,2217,5378,17431
162,09/14/2020 10:00:00 AM,37280,28441,25766,2222,5402,17535
163,09/15/2020 10:00:00 AM,37451,28642,25852,2234,5418,17648
164,09/16/2020 10:00:00 AM,37639,28864,25940,2249,5437,17759
165,09/17/2020 10:00:00 AM,37823,29083,26042,2259,5463,17849
166,09/18/2020 10:00:00 AM,37992,29269,26124,2266,5482,17929
167,09/19/2020 10:00:00 AM,38168,29498,26212,2272,5509,18085
168,09/20/2020 10:00:00 AM,38261,29686,26242,2282,5521,18164
169,09/21/2020 10:00:00 AM,38370,29837,26305,2291,5541,18224
170,09/22/2020 10:00:00 AM,38481,29945,26382,2293,5559,18252
171,09/23/2020 10:00:00 AM,38590,30087,26458,2295,5574,18293
172,09/24/2020 10:00:00 AM,38719,30278,26527,2305,5594,18377
173,09/25/2020 10:00:00 AM,38869,30474,26621,2326,5616,18453
174,09/26/2020 10:00:00 AM,38994,30635,26700,2330,5634,18679
175,09/27/2020 10:00:00 AM,39111,30858,26766,2334,5665,18669
176,09/28/2020 10:00:00 AM,39257,31027,26824,2344,5697,18731
177,09/29/2020 10:00:00 AM,39382,31172,26902,2354,5705,18796
178,09/30/2020 10:00:00 AM,39508,31329,26961,2361,5724,18842
179,10/01/2020 10:00:00 AM,39670,31634,27061,2371,5761,19013
180,10/02/2020 10:00:00 AM,39848,31892,27164,2383,5795,19139
181,10/03/2020 10:00:00 AM,39985,32140,27257,2395,5828,19214
182,10/04/2020 10:00:00 AM,40123,32303,27325,2403,5853,19283
183,10/05/2020 10:00:00 AM,40250,32480,27404,2412,5891,19354
184,10/06/2020 10:00:00 AM,40344,32625,27473,2423,5917,19422
185,10/07/2020 10:00:00 AM,40466,32833,27532,2431,5933,19469
186,10/08/2020 10:00:00 AM,40637,33120,27663,2456,5957,19592
187,10/09/2020 10:00:00 AM,40831,33387,27768,2469,5990,19714
188,10/10/2020 10:00:00 AM,40991,33625,27875,2479,6024,19801
189,10/11/2020 10:00:00 AM,41124,33858,27966,2499,6050,19860
190,10/12/2020 10:00:00 AM,41236,34023,28068,2507,6087,19940
191,10/13/2020 10:00:00 AM,41453,34191,28230,2525,6119,19825
192,10/14/2020 10:00:00 AM,41603,34416,28317,2536,6154,19892
193,10/15/2020 10:00:00 AM,41767,34640,28418,2556,6198,19969
194,10/16/2020 10:00:00 AM,41929,34928,28561,2573,6231,20107
195,10/17/2020 10:00:00 AM,42152,35207,28708,2591,6277,20192
196,10/18/2020 10:00:00 AM,42282,35417,28794,2602,6299,20263
197,10/19/2020 10:00:00 AM,42415,35593,28879,2610,6322,20335
198,10/20/2020 10:00:00 AM,42567,35784,28997,2629,6346,20421
199,10/21/2020 10:00:00 AM,42702,35946,29085,2632,6370,20501
200,10/22/2020 10:00:00 AM,42907,36207,29229,2644,6401,20591
201,10/23/2020 10:00:00 AM,43093,36460,29349,2663,6438,20688
202,10/24/2020 10:00:00 AM,43306,36753,29513,2673,6468,20774
203,10/25/2020 10:00:00 AM,43513,37023,29634,2687,6520,20902
204,10/26/2020 10:00:00 AM,43642,37220,29727,2695,6558,21002
205,10/27/2020 10:00:00 AM,43861,37519,29910,2712,6596,21143
206,10/28/2020 10:00:00 AM,44035,37775,30054,2730,6628,21203
207,10/29/2020 10:00:00 AM,44289,38112,30255,2750,6680,21301
208,10/30/2020 10:00:00 AM,44529,38458,30430,2766,6713,21418
209,10/31/2020 10:00:00 AM,44775,38807,30644,2790,6745,21520
210,11/01/2020 10:00:00 AM,45026,39114,30801,2810,6792,21602
211,11/02/2020 10:00:00 AM,45273,39362,30957,2823,6828,21752
212,11/03/2020 10:00:00 AM,45515,39662,31086,2836,6873,21794
213,11/04/2020 10:00:00 AM,45723,39978,31214,2846,6915,22090
214,11/05/2020 10:00:00 AM,46059,40546,31433,2880,6994,22052
215,11/06/2020 10:00:00 AM,46466,41107,31717,2913,7057,22245
216,11/07/2020 10:00:00 AM,46824,41648,31957,2930,7140,22416
217,11/08/2020 10:00:00 AM,47114,42120,32106,2951,7193,22512
218,11/09/2020 10:00:00 AM,47474,42622,32302,2983,7256,22734
219,11/10/2020 10:00:00 AM,47855,43083,32541,3017,7305,22908
220,11/11/2020 10:00:00 AM,48267,43765,32817,3056,7381,23137
221,11/12/2020 10:00:00 AM,48766,44380,33033,3101,7436,23184
222,11/13/2020 10:00:00 AM,49248,45110,33319,3129,7524,23439
223,11/14/2020 10:00:00 AM,49857,46026,33619,3166,7619,23803
224,11/15/2020 10:00:00 AM,50362,46745,33829,3204,7697,24093
225,11/16/2020 10:00:00 AM,50866,47465,34028,3246,7780,24271
226,11/17/2020 10:00:00 AM,51416,48245,34373,3286,7874,24611
227,11/18/2020 10:00:00 AM,51959,49109,34622,3333,7964,24836
228,11/19/2020 10:00:00 AM,52705,50204,34983,3391,8086,25364
229,11/20/2020 10:00:00 AM,53367,51076,35273,3439,8184,25747
230,11/21/2020 10:00:00 AM,54119,52082,35514,3480,8253,26523
231,11/22/2020 10:00:00 AM,54785,53248,35805,3546,8353,26402
232,11/23/2020 10:00:00 AM,55302,53914,35967,3587,8434,26593
233,11/24/2020 10:00:00 AM,55775,54600,36218,3625,8520,26726
234,11/25/2020 10:00:00 AM,56544,55720,36545,3669,8618,27065
235,11/26/2020 10:00:00 AM,57241,56850,36842,3730,8743,27074
236,11/27/2020 10:00:00 AM,57903,57735,37099,3795,8816,27510
237,11/28/2020 10:00:00 AM,58365,58336,37317,3826,8871,27733
238,11/29/2020 10:00:00 AM,58842,59209,37550,3876,8957,28013
239,11/30/2020 10:00:00 AM,59359,60009,37766,3937,9043,28256
240,12/01/2020 10:00:00 AM,60159,60858,38106,3989,9151,28872
241,12/02/2020 10:00:00 AM,60744,61776,38328,4032,9272,29203
242,12/03/2020 10:00:00 AM,61290,62676,38586,4084,9360,29403
243,12/04/2020 10:00:00 AM,62197,64055,39082,4149,9484,30224
244,12/05/2020 10:00:00 AM,63046,65224,39556,4202,9612,30744
245,12/06/2020 10:00:00 AM,63725,66317,39924,4276,9764,31021
246,12/07/2020 10:00:00 AM,64402,67175,40275,4341,9897,31239
247,12/08/2020 10:00:00 AM,65043,67876,40552,4377,9971,32142
248,12/09/2020 10:00:00 AM,65894,69171,40932,4449,10126,32081
249,12/10/2020 10:00:00 AM,66765,70347,41379,4519,10299,32546
250,12/11/2020 10:00:00 AM,67520,71275,41801,4583,10427,32865
251,12/12/2020 10:00:00 AM,68466,72519,42293,4659,10587,33485
252,12/13/2020 10:00:00 AM,69144,73462,42650,4731,10726,33934
253,12/14/2020 10:00:00 AM,69786,74295,42968,4790,10853,34269
254,12/15/2020 10:00:00 AM,70501,75106,43336,4843,10949,34627
255,12/16/2020 10:00:00 AM,71159,75985,43618,4908,11080,35017
256,12/17/2020 10:00:00 AM,71786,76865,43865,4942,11186,35340
257,12/18/2020 10:00:00 AM,72524,77779,44241,5001,11274,35734
258,12/19/2020 10:00:00 AM,73091,78672,44520,5051,11387,36033
259,12/20/2020 10:00:00 AM,73644,79528,44722,5099,11467,36348
260,12/21/2020 10:00:00 AM,74271,80358,45036,5153,11586,36669
261,12/22/2020 10:00:00 AM,74860,81219,45308,5220,11699,37091
262,12/23/2020 10:00:00 AM,75524,82179,45643,5275,11817,37424
263,12/24/2020 10:00:00 AM,76211,83339,46040,5354,11962,37822
264,12/25/2020 10:00:00 AM,76780,84277,46352,5426,12086,38239
265,12/26/2020 10:00:00 AM,77350,85197,46631,5478,12201,38583
266,12/27/2020 10:00:00 AM,77826,85908,46855,5529,12283,38797
267,12/28/2020 10:00:00 AM,78325,86664,47107,5588,12364,39135
268,12/29/2020 10:00:00 AM,78846,87390,47352,5641,12466,39366
269,12/30/2020 10:00:00 AM,79556,88461,47657,5701,12596,39718
270,12/31/2020 10:00:00 AM,80223,89801,47989,5794,12735,40120
271,01/01/2021 10:00:00 AM,81075,91299,48433,5856,12910,40646
272,01/02/2021 10:00:00 AM,81798,92447,48809,5907,13050,41160
273,01/03/2021 10:00:00 AM,82325,93353,49088,5954,13153,41446
274,01/04/2021 10:00:00 AM,82912,94324,49403,6019,13280,41864
275,01/05/2021 10:00:00 AM,83434,95050,49648,6061,13381,42184
276,01/06/2021 10:00:00 AM,84111,96496,50017,6129,13534,42617
277,01/07/2021 10:00:00 AM,84808,97724,50418,6207,13713,43004
278,01/08/2021 10:00:00 AM,85684,99380,50808,6314,13918,43502
279,01/09/2021 10:00:00 AM,86612,100863,51285,6412,14119,44073
280,01/10/2021 10:00:00 AM,87442,102162,51723,6490,14272,44585
281,01/11/2021 10:00:00 AM,88181,103395,52076,6571,14416,45047
282,01/12/2021 10:00:00 AM,88814,104415,52461,6644,14584,45433
283,01/13/2021 10:00:00 AM,89445,105437,52739,6692,14673,45881
284,01/14/2021 10:00:00 AM,90196,106595,53182,6783,14861,46198
285,01/15/2021 10:00:00 AM,90919,107828,53573,6867,14998,46554
286,01/16/2021 10:00:00 AM,91776,109156,53989,6952,15178,46980
287,01/17/2021 10:00:00 AM,92478,110133,54329,7013,15297,47195
288,01/18/2021 10:00:00 AM,92991,110819,54560,7055,15381,47408
289,01/19/2021 10:00:00 AM,93515,111612,54840,7107,15470,47642
290,01/20/2021 10:00:00 AM,94096,112492,55152,7166,15570,47877
291,01/21/2021 10:00:00 AM,94676,113365,55417,7217,15665,48179
292,01/22/2021 10:00:00 AM,95336,114359,55721,7275,15760,48464
293,01/23/2021 10:00:00 AM,96044,115308,56063,7329,15872,48691
294,01/24/2021 10:00:00 AM,96685,116088,56337,7398,15969,48975
295,01/25/2021 10:00:00 AM,97149,116713,56632,7446,16037,49161
296,01/26/2021 10:00:00 AM,97614,117278,56784,7494,16112,49338
297,01/27/2021 10:00:00 AM,98200,117997,57054,7564,16213,49531
298,01/28/2021 10:00:00 AM,98829,118912,57295,7615,16329,49769
299,01/29/2021 10:00:00 AM,99405,119649,57531,7670,16418,49956
300,01/30/2021 10:00:00 AM,100029,120463,57803,7719,16553,50159
301,01/31/2021 10:00:00 AM,100529,121178,58018,7773,16650,50325
302,02/01/2021 10:00:00 AM,100877,121621,58181,7803,16705,50449
303,02/02/2021 10:00:00 AM,101160,121919,58342,7836,16743,50541
304,02/03/2021 10:00:00 AM,101453,122277,58447,7863,16793,50650
305,02/04/2021 10:00:00 AM,101954,122857,58655,7911,16849,50811
306,02/05/2021 10:00:00 AM,102381,123509,58871,7968,16894,50961
307,02/06/2021 10:00:00 AM,102828,124143,59082,8017,16964,51050
308,02/07/2021 10:00:00 AM,103326,124776,59224,8046,17038,51240
309,02/08/2021 10:00:00 AM,103618,125146,59331,8078,17079,51301
310,02/09/2021 10:00:00 AM,103919,125464,59500,8116,17118,51412
311,02/10/2021 10:00:00 AM,104313,125916,59637,8152,17163,51485
312,02/11/2021 10:00:00 AM,104731,126460,59789,8187,17227,51471
313,02/12/2021 10:00:00 AM,105087,126901,59920,8219,17281,51569
314,02/13/2021 10:00:00 AM,105423,127344,60068,8252,17331,51718
315,02/14/2021 10:00:00 AM,105686,127674,60190,8269,17372,51792
316,02/15/2021 10:00:00 AM,105906,127950,60275,8298,17415,51861
317,02/16/2021 10:00:00 AM,106062,128167,60358,8316,17447,51871
318,02/17/2021 10:00:00 AM,106360,128441,60448,8340,17497,51894
319,02/18/2021 10:00:00 AM,106711,128821,60548,8370,17535,51981
320,02/19/2021 10:00:00 AM,107034,129257,60651,8403,17594,52035
321,02/20/2021 10:00:00 AM,107295,129550,60735,8427,17651,52079
322,02/21/2021 10:00:00 AM,107496,129833,60808,8444,17674,52100
323,02/22/2021 10:00:00 AM,107690,130102,60862,8461,17710,52141
324,02/23/2021 10:00:00 AM,107945,130344,60945,8479,17743,52172
325,02/24/2021 10:00:00 AM,108275,130687,61045,8500,17771,52212
326,02/25/2021 10:00:00 AM,108638,131069,61141,8541,17810,52267
327,02/26/2021 10:00:00 AM,108964,131459,61264,8571,17857,52321
328,02/27/2021 10:00:00 AM,109265,131755,61379,8603,17902,52368
329,02/28/2021 10:00:00 AM,109532,132094,61466,8623,17938,52446
330,03/01/2021 10:00:00 AM,109768,132315,61587,8642,17950,52440
331,03/02/2021 10:00:00 AM,109924,132480,61652,8674,17970,52470
332,03/03/2021 10:00:00 AM,110215,132787,61746,8706,17998,52504
333,03/04/2021 10:00:00 AM,111111,133654,61993,8761,18107,51139
334,03/05/2021 10:00:00 AM,111453,134030,62085,8792,18173,51145
335,03/06/2021 10:00:00 AM,111763,134401,62202,8824,18282,51138
336,03/07/2021 10:00:00 AM,112033,134697,62261,8867,18321,51140
337,03/08/2021 10:00:00 AM,112287,134965,62323,8909,18356,51195
338,03/09/2021 10:00:00 AM,112499,135233,62418,8955,18394,51167
339,03/10/2021 10:00:00 AM,112790,135611,62511,9005,18432,51217
340,03/11/2021 10:00:00 AM,113132,135973,62593,9032,18484,51276
341,03/12/2021 10:00:00 AM,113400,136277,62657,9057,18515,51574
342,03/13/2021 10:00:00 AM,113892,136846,62818,9124,18583,51318
343,03/14/2021 10:00:00 AM,114234,137182,62901,9147,18612,51365
344,03/15/2021 10:00:00 AM,114489,137396,62961,9175,18641,51396
345,03/16/2021 10:00:00 AM,114738,137646,63054,9193,18676,51409
346,03/17/2021 10:00:00 AM,115096,138004,63151,9224,18738,51420
347,03/18/2021 10:00:00 AM,115508,138445,63273,9265,18787,51468
348,03/19/2021 10:00:00 AM,115952,138844,63388,9307,18829,51578
349,03/20/2021 10:00:00 AM,116383,139255,63521,9331,18871,51655
350,03/21/2021 10:00:00 AM,116815,139609,63602,9361,18931,51705
351,03/22/2021 10:00:00 AM,117092,139879,63655,9391,18973,51715
352,03/23/2021 10:00:00 AM,117399,140194,63719,9413,19004,51698
353,03/24/2021 10:00:00 AM,117875,140665,63837,9446,19051,51726
354,03/25/2021 10:00:00 AM,118329,141113,63948,9487,19096,52009
355,03/26/2021 10:00:00 AM,118957,141793,64098,9529,19150,51816
356,03/27/2021 10:00:00 AM,119498,142316,64220,9565,19205,51905
357,03/28/2021 10:00:00 AM,120041,142857,64310,9612,19260,51964
358,03/29/2021 10:00:00 AM,120416,143242,64371,9633,19305,52108
359,03/30/2021 10:00:00 AM,120807,143582,64474,9668,19326,52121
360,03/31/2021 10:00:00 AM,121368,144111,64585,9701,19372,52207
361,04/01/2021 10:00:00 AM,122009,144746,64722,9755,19441,52255
362,04/02/2021 10:00:00 AM,122623,145325,64830,9793,19513,52301
363,04/03/2021 10:00:00 AM,123108,145845,64941,9839,19569,52358
364,04/04/2021 10:00:00 AM,123814,146479,65085,9883,19632,52436
365,04/05/2021 10:00:00 AM,124176,146789,65166,9905,19667,52485
366,04/06/2021 10:00:00 AM,124517,147166,65261,9936,19713,52462
367,04/07/2021 10:00:00 AM,125178,147687,65385,9979,19775,52522
368,04/08/2021 10:00:00 AM,125765,148238,65666,10148,19730,52276
369,04/09/2021 10:00:00 AM,126510,148987,65813,10192,19809,52352
370,04/10/2021 10:00:00 AM,127189,149573,65966,10243,19880,52396
371,04/11/2021 10:00:00 AM,127804,150113,66089,10277,19943,52504
372,04/12/2021 10:00:00 AM,128250,150433,66191,10304,19987,52550
373,04/13/2021 10:00:00 AM,128698,150823,66322,10343,20039,52574
374,04/14/2021 10:00:00 AM,129287,151286,66422,10362,20071,52923
375,04/15/2021 10:00:00 AM,130023,151960,66552,10404,20149,52707
376,04/16/2021 10:00:00 AM,130679,152542,66697,10440,20232,52769
377,04/17/2021 10:00:00 AM,130886,152696,66765,10452,20253,53807
378,04/18/2021 10:00:00 AM,131903,153570,66942,10514,20374,52725
379,04/19/2021 10:00:00 AM,132201,153836,66975,10532,20412,52703
380,04/20/2021 10:00:00 AM,132606,154145,67094,10554,20457,52728
381,04/21/2021 10:00:00 AM,133087,154577,67220,10576,20511,52818
382,04/22/2021 10:00:00 AM,133597,155028,67341,10601,20571,52854
383,04/23/2021 10:00:00 AM,134111,155463,67466,10627,20636,52852
384,04/24/2021 10:00:00 AM,134621,155917,67586,10658,20697,52872
385,04/25/2021 10:00:00 AM,134978,156245,67651,10677,20715,52991
386,04/26/2021 10:00:00 AM,135255,156461,67725,10703,20745,52925
387,04/27/2021 10:00:00 AM,135534,156649,67787,10726,20746,53049
388,04/28/2021 10:00:00 AM,135974,157106,67903,10764,20801,52945
389,04/29/2021 10:00:00 AM,136394,157481,68005,10794,20852,52933
390,04/30/2021 10:00:00 AM,136815,157816,68093,10826,20890,52961
391,05/01/2021 10:00:00 AM,137238,158181,68180,10850,20932,52959
392,05/02/2021 10:00:00 AM,137564,158424,68240,10862,20961,52938
393,05/03/2021 10:00:00 AM,137812,158593,68301,10871,20992,52940
394,05/04/2021 10:00:00 AM,138056,158782,68349,10885,21011,52927
395,05/05/2021 10:00:00 AM,138375,159036,68416,10908,21043,52911
396,05/06/2021 10:00:00 AM,138641,159245,68482,10923,21076,52900
397,05/07/2021 10:00:00 AM,139022,159518,68554,10937,21109,52895
398,05/08/2021 10:00:00 AM,139303,159752,68622,10951,21142,52921
399,05/09/2021 10:00:00 AM,139486,159930,68653,10957,21162,52937
400,05/10/2021 10:00:00 AM,139620,160020,68684,10963,21173,52941
401,05/11/2021 10:00:00 AM,139775,160185,68748,10969,21195,52928
402,05/12/2021 10:00:00 AM,139972,160357,68815,10979,21216,52932
403,05/13/2021 10:00:00 AM,140182,160545,68878,10999,21239,52902
404,05/14/2021 10:00:00 AM,140398,160763,68946,11005,21253,52892
405,05/15/2021 10:00:00 AM,140592,160896,69007,11019,21268,52853
406,05/16/2021 10:00:00 AM,140773,161035,69044,11024,21292,52836
407,05/17/2021 10:00:00 AM,140861,161101,69081,11028,21299,52846
408,05/18/2021 10:00:00 AM,140978,161186,69108,11032,21313,52811
409,05/19/2021 10:00:00 AM,141135,161340,69155,11046,21326,52763
410,05/20/2021 10:00:00 AM,141288,161478,69192,11051,21340,52735
411,05/21/2021 10:00:00 AM,141524,161627,69249,11059,21358,52710
412,05/22/2021 10:00:00 AM,141836,161793,69306,11068,21367,52678
413,05/23/2021 10:00:00 AM,141972,161871,69337,11074,21380,52658
414,05/24/2021 10:00:00 AM,142109,161939,69365,11076,21381,52650
415,05/25/2021 10:00:00 AM,142201,162005,69387,11079,21390,52618
416,05/26/2021 10:00:00 AM,142295,162096,69423,11085,21401,52578
417,05/27/2021 10:00:00 AM,142404,162186,69460,11088,21407,52550
418,05/28/2021 10:00:00 AM,142524,162288,69505,11094,21424,52508
419,05/29/2021 10:00:00 AM,142598,162380,69531,11097,21433,52489
420,05/30/2021 10:00:00 AM,142698,162491,69582,11110,21450,52446
421,05/31/2021 10:00:00 AM,142746,162544,69598,11112,21456,52438
422,06/01/2021 10:00:00 AM,142804,162570,69619,11115,21463,52424
423,06/02/2021 10:00:00 AM,142843,162613,69636,11118,21459,52391
424,06/03/2021 10:00:00 AM,142922,162674,69665,11119,21465,52349
425,06/04/2021 10:00:00 AM,142997,162745,69701,11119,21465,52312
426,06/05/2021 10:00:00 AM,143071,162811,69716,11122,21470,52281
427,06/06/2021 10:00:00 AM,143138,162846,69740,11124,21470,52257
428,06/07/2021 10:00:00 AM,143176,162885,69757,11127,21475,52239
429,06/08/2021 10:00:00 AM,143220,162926,69776,11130,21473,52212
430,06/09/2021 10:00:00 AM,143282,162988,69805,11136,21468,52184
431,06/10/2021 10:00:00 AM,143341,162917,69855,11327,21573,51971
432,06/11/2021 10:00:00 AM,143396,162970,69888,11331,21581,51931
433,06/12/2021 10:00:00 AM,143457,163015,69914,11339,21582,51876
434,06/13/2021 10:00:00 AM,143499,163044,69929,11340,21589,51864
435,06/14/2021 10:00:00 AM,143525,163071,69938,11341,21594,51856
436,06/15/2021 10:00:00 AM,143569,163120,69964,11343,21591,51805
437,06/16/2021 10:00:00 AM,143629,163169,69982,11346,21599,51745
438,06/17/2021 10:00:00 AM,143670,163223,70013,11347,21593,51703
439,06/18/2021 10:00:00 AM,143728,163275,70049,11353,21592,51638
440,06/19/2021 10:00:00 AM,143737,163294,70055,11356,21591,51664
441,06/20/2021 10:00:00 AM,143786,163330,70078,11359,21597,51589
442,06/21/2021 10:00:00 AM,143809,163352,70087,11360,21599,51572
443,06/22/2021 10:00:00 AM,143836,163385,70103,11360,21604,51540
444,06/23/2021 10:00:00 AM,143864,163429,70117,11365,21611,51501
445,06/24/2021 10:00:00 AM,143892,163461,70116,11365,21609,51510
446,06/25/2021 10:00:00 AM,143928,163497,70138,11366,21609,51479
447,06/26/2021 10:00:00 AM,143962,163513,70152,11366,21611,51474
448,06/27/2021 10:00:00 AM,144013,163550,70178,11376,21614,51413
449,06/28/2021 10:00:00 AM,144034,163564,70190,11379,21615,51399
450,06/29/2021 10:00:00 AM,144051,163589,70201,11380,21624,51372
451,06/30/2021 10:00:00 AM,144083,163618,70220,11388,21629,51341
452,07/01/2021 10:00:00 AM,144116,163665,70247,11395,21635,51296
453,07/02/2021 10:00:00 AM,144168,163709,70269,11401,21635,51257
454,07/03/2021 10:00:00 AM,144205,163767,70282,11408,21640,51233
455,07/04/2021 10:00:00 AM,144226,163794,70290,11413,21643,51230
456,07/05/2021 10:00:00 AM,144248,163802,70297,11415,21642,51230
457,07/06/2021 10:00:00 AM,144269,163837,70308,11419,21640,51208
458,07/07/2021 10:00:00 AM,144301,163879,70326,11422,21641,51167
459,07/08/2021 10:00:00 AM,144347,163903,70399,11451,21663,51072
460,07/09/2021 10:00:00 AM,144401,163962,70415,11459,21663,51080
461,07/10/2021 10:00:00 AM,144465,164023,70439,11468,21661,51051
462,07/11/2021 10:00:00 AM,144497,164049,70452,11472,21669,51047
463,07/12/2021 10:00:00 AM,144527,164088,70462,11471,21667,51050
464,07/13/2021 10:00:00 AM,144583,164133,70483,11475,21673,51036
465,07/14/2021 10:00:00 AM,144631,164189,70499,11478,21683,51007
466,07/15/2021 10:00:00 AM,144705,164273,70533,11480,21693,50981
467,07/16/2021 10:00:00 AM,144773,164363,70561,11492,21704,50955
468,07/17/2021 10:00:00 AM,144857,164438,70595,11497,21710,50934
469,07/18/2021 10:00:00 AM,144931,164498,70618,11500,21714,50936
470,07/19/2021 10:00:00 AM,144980,164558,70632,11501,21718,50947
471,07/20/2021 10:00:00 AM,145057,164636,70656,11502,21726,50914
472,07/21/2021 10:00:00 AM,145172,164743,70682,11511,21751,50876
473,07/22/2021 10:00:00 AM,145280,164894,70714,11521,21764,50865
474,07/23/2021 10:00:00 AM,145394,165026,70749,11530,21774,50853
475,07/24/2021 10:00:00 AM,145510,165169,70787,11539,21787,50851
476,07/25/2021 10:00:00 AM,145629,165291,70814,11549,21800,50866
477,07/26/2021 10:00:00 AM,145732,165393,70840,11550,21809,50881
478,07/27/2021 10:00:00 AM,145857,165544,70874,11558,21819,50862
479,07/28/2021 10:00:00 AM,146024,165707,70918,11566,21830,50885
480,07/29/2021 10:00:00 AM,146233,165915,70966,11572,21846,50903
481,07/30/2021 10:00:00 AM,146460,166125,71013,11581,21878,50904
482,07/31/2021 10:00:00 AM,146674,166364,71062,11596,21909,50943
483,08/01/2021 10:00:00 AM,146879,166595,71106,11602,21934,50979
484,08/02/2021 10:00:00 AM,147079,166764,71136,11617,21950,50996
485,08/03/2021 10:00:00 AM,147207,166923,71178,11628,21965,51009
486,08/04/2021 10:00:00 AM,147487,167220,71229,11644,21996,51029
487,08/05/2021 10:00:00 AM,147784,167570,71336,11665,21999,50980
488,08/06/2021 10:00:00 AM,148143,167942,71408,11689,22028,51014
489,08/07/2021 10:00:00 AM,148505,168292,71485,11710,22066,51058
490,08/08/2021 10:00:00 AM,148841,168639,71547,11733,22099,51110
491,08/09/2021 10:00:00 AM,149067,168881,71586,11746,22131,51144
492,08/10/2021 10:00:00 AM,149324,169146,71663,11772,22149,51130
493,08/11/2021 10:00:00 AM,149639,169576,71738,11786,22185,51146
494,08/12/2021 10:00:00 AM,150172,170112,71888,11811,22245,50889
495,08/13/2021 10:00:00 AM,150538,170648,71965,11835,22278,50803
496,08/14/2021 10:00:00 AM,150934,171106,72033,11851,22318,50841
497,08/15/2021 10:00:00 AM,151278,171452,72090,11874,22358,50900
498,08/16/2021 10:00:00 AM,151569,171791,72129,11891,22393,50945
499,08/17/2021 10:00:00 AM,151866,172195,72192,11909,22432,50975
500,08/18/2021 10:00:00 AM,152242,172649,72261,11926,22479,51024
501,08/19/2021 10:00:00 AM,152637,173153,72334,11945,22516,51056
502,08/20/2021 10:00:00 AM,153056,173700,72439,11970,22568,51114
503,08/21/2021 10:00:00 AM,153406,174254,72526,11995,22610,51187
504,08/22/2021 10:00:00 AM,153738,174764,72572,12012,22661,51221
505,08/23/2021 10:00:00 AM,154070,175203,72635,12031,22690,51264
506,08/24/2021 10:00:00 AM,154341,175622,72705,12048,22740,51284
507,08/25/2021 10:00:00 AM,154753,176185,72792,12072,22783,51345
508,08/26/2021 10:00:00 AM,155159,176783,72887,12100,22846,51399
509,08/27/2021 10:00:00 AM,155593,177463,72999,12111,22900,51481
510,08/28/2021 10:00:00 AM,156111,178203,73138,12167,22980,51316
511,08/29/2021 10:00:00 AM,156390,178577,73184,12159,23007,51665
512,08/30/2021 10:00:00 AM,156710,179047,73238,12177,23048,51704
513,08/31/2021 10:00:00 AM,157085,179539,73322,12195,23085,51776
514,09/01/2021 10:00:00 AM,157502,180155,73408,12213,23156,51942
515,09/02/2021 10:00:00 AM,157834,180680,73486,12230,23197,52221
516,09/03/2021 10:00:00 AM,158385,181510,73652,12263,23286,51939
517,09/04/2021 10:00:00 AM,158737,182132,73741,12285,23346,51988
518,09/05/2021 10:00:00 AM,159022,182500,73818,12301,23375,52018
519,09/06/2021 10:00:00 AM,159322,183028,73912,12319,23422,52058
520,09/07/2021 10:00:00 AM,159619,183367,73976,12346,23455,52093
521,09/08/2021 10:00:00 AM,159871,183694,74050,12365,23500,52077
522,09/09/2021 10:00:00 AM,160199,184124,74195,12377,23527,52042
523,09/10/2021 10:00:00 AM,160726,184857,74306,12407,23597,52124
524,09/11/2021 10:00:00 AM,161123,185566,74416,12434,23643,52211
525,09/12/2021 10:00:00 AM,161505,186159,74506,12454,23694,52225
526,09/13/2021 10:00:00 AM,161818,186668,74602,12468,23733,52357
527,09/14/2021 10:00:00 AM,162150,187210,74715,12487,23782,52396
528,09/15/2021 10:00:00 AM,162473,187873,74819,12501,23831,52432
529,09/16/2021 10:00:00 AM,162890,188571,74913,12530,23880,52475
530,09/17/2021 10:00:00 AM,163332,189368,75035,12555,23941,52553
531,09/18/2021 10:00:00 AM,163698,190059,75121,12578,23980,52625
532,09/19/2021 10:00:00 AM,164030,190577,75203,12595,24020,52672
533,09/20/2021 10:00:00 AM,164337,191193,75290,12612,24074,52730
534,09/21/2021 10:00:00 AM,164592,191718,75363,12635,24122,52780
535,09/22/2021 10:00:00 AM,164946,192341,75449,12654,24154,52811
536,09/23/2021 10:00:00 AM,165347,193105,75561,12677,24208,52862
537,09/24/2021 10:00:00 AM,165742,193818,75667,12711,24261,52924
538,09/25/2021 10:00:00 AM,166126,194549,75777,12729,24311,53198
539,09/26/2021 10:00:00 AM,166395,195059,75839,12740,24341,53430
540,09/27/2021 10:00:00 AM,166791,195824,75946,12771,24412,53020
541,09/28/2021 10:00:00 AM,167047,196357,76052,12782,24465,53033
542,09/29/2021 10:00:00 AM,167380,196983,76124,12804,24518,53052
543,09/30/2021 10:00:00 AM,167814,197745,76239,12845,24591,53106
544,10/01/2021 10:00:00 AM,168299,198499,76359,12888,24646,53179
545,10/02/2021 10:00:00 AM,168628,199281,76456,12913,24705,53174
546,10/03/2021 10:00:00 AM,168909,199860,76541,12937,24774,53228
547,10/04/2021 10:00:00 AM,169180,200459,76630,12957,24821,53280
548,10/05/2021 10:00:00 AM,169354,200829,76701,12986,24841,53265
549,10/06/2021 10:00:00 AM,169659,201456,76782,13001,24904,53251
550,10/07/2021 10:00:00 AM,170021,202302,76949,13089,24947,53143
551,10/08/2021 10:00:00 AM,170338,203001,77035,13122,24991,53140
552,10/09/2021 10:00:00 AM,170681,203745,77153,13149,25029,53129
553,10/10/2021 10:00:00 AM,171117,204396,77278,13184,25130,52923
554,10/11/2021 10:00:00 AM,171297,204859,77344,13211,25174,53143
555,10/12/2021 10:00:00 AM,171434,205072,77399,13223,25203,53108
556,10/13/2021 10:00:00 AM,171738,205703,77471,13235,25240,53165
557,10/14/2021 10:00:00 AM,172137,206506,77588,13265,25291,52888
558,10/15/2021 10:00:00 AM,172428,207121,77693,13276,25344,52881
559,10/16/2021 10:00:00 AM,172692,207664,77770,13302,25380,52871
560,10/17/2021 10:00:00 AM,172938,208132,77856,13315,25431,52878
561,10/18/2021 10:00:00 AM,173134,208525,77932,13330,25463,52880
562,10/19/2021 10:00:00 AM,173279,208833,77989,13347,25491,52868
563,10/20/2021 10:00:00 AM,173508,209248,78056,13364,25529,52819
564,10/21/2021 10:00:00 AM,173752,209917,78156,13381,25576,52811
565,10/22/2021 10:00:00 AM,173998,210427,78228,13395,25608,52800
566,10/23/2021 10:00:00 AM,174201,210976,78300,13424,25649,52816
567,10/24/2021 10:00:00 AM,174399,211398,78372,13444,25673,52797
568,10/25/2021 10:00:00 AM,174535,211687,78414,13454,25685,52820
569,10/26/2021 10:00:00 AM,174678,212060,78463,13466,25715,52810
570,10/27/2021 10:00:00 AM,174865,212497,78537,13483,25747,52794
571,10/28/2021 10:00:00 AM,175091,213037,78633,13504,25802,52785
572,10/29/2021 10:00:00 AM,175313,213617,78705,13526,25837,52765
573,10/30/2021 10:00:00 AM,175537,214124,78791,13547,25866,52769
574,10/31/2021 10:00:00 AM,175704,214489,78843,13563,25898,52773
575,11/01/2021 10:00:00 AM,175838,214758,78873,13578,25910,52761
576,11/02/2021 10:00:00 AM,175993,215034,78922,13594,25931,52726
577,11/03/2021 10:00:00 AM,176200,215522,78994,13607,25976,52597
578,11/04/2021 10:00:00 AM,176388,216017,79078,13638,25992,52583
579,11/05/2021 10:00:00 AM,176625,216533,79150,13676,26017,52563
580,11/06/2021 10:00:00 AM,176833,216981,79237,13698,26049,52557
